-------------------------------------------------------------------------------
Test set: com.zenika.academy.AppTest
-------------------------------------------------------------------------------
Tests run: 1, Failures: 0, Errors: 0, Skipped: 0, Time elapsed: 0.057 s - in com.zenika.academy.AppTest
